Wang_Sec3_Lab9-10_RawData/D21/F0000CH1.CSV

Record Length,2.500000e+03,,  -0.000316000000,  -0.15200,
Sample Interval,2.000000e-07,,  -0.000315800000,  -0.15200,
Trigger Point,1.580000000000e+03,,  -0.000315600000,  -0.14800,
,,,  -0.000315400000,  -0.14800,
,,,  -0.000315200000,  -0.14000,
,,,  -0.000315000000,  -0.14000,
Source,CH1,,  -0.000314800000,  -0.14000,
Vertical Units,V,,  -0.000314600000,  -0.14000,
Vertical Scale,1.000000e-01,,  -0.000314400000,  -0.14000,
Vertical Offset,0.000000e+00,,  -0.000314200000,  -0.13200,
Horizontal Units,s,,  -0.000314000000,  -0.13600,
Horizontal Scale,5.000000e-05,,  -0.000313800000,  -0.13600,
Pt Fmt,Y,,  -0.000313600000,  -0.12800,
Yzero,0.000000e+00,,  -0.000313400000,  -0.12000,
Probe Atten,1.000000e+00,,  -0.000313200000,  -0.12400,
Model Number,TDS2002B,,  -0.000313000000,  -0.12400,
Serial Number,C102091,,  -0.000312800000,  -0.11600,
Firmware Version,FV:v23.08,,  -0.000312600000,  -0.12000,
,,,-00.000312400000,  -0.12000,
,,,-00.000312200000,  -0.11200,
,,,-00.000312000000,  -0.11200,
,,,-00.000311800000,  -0.11200,
,,,-00.000311600000,  -0.10800,
,,,-00.000311400000,  -0.10400,
,,,-00.000311200000,  -0.10800,
,,,-00.000311000000,  -0.10400,
,,,-00.000310800000,  -0.10000,
,,,-00.000310600000,  -0.10000,
,,,-00.000310400000,  -0.09600,
,,,-00.000310200000,  -0.09600,
,,,-00.000310000000,  -0.08800,
,,,-00.000309800000,  -0.09200,
,,,-00.000309600000,  -0.08800,
,,,-00.000309400000,  -0.08400,
,,,-00.000309200000,  -0.08400,
,,,-00.000309000000,  -0.07600,
,,,-00.000308800000,  -0.08000,
,,,-00.000308600000,  -0.07600,
,,,-00.000308400000,  -0.07600,
,,,-00.000308200000,  -0.08000,
,,,-00.000308000000,  -0.07200,
,,,-00.000307800000,  -0.07200,
,,,-00.000307600000,  -0.06800,
,,,-00.000307400000,  -0.07200,
,,,-00.000307200000,  -0.06800,
,,,-00.000307000000,  -0.06000,
,,,-00.000306800000,  -0.06000,
,,,-00.000306600000,  -0.06000,
,,,-00.000306400000,  -0.06000,
,,,-00.000306200000,  -0.05600,
,,,-00.000306000000,  -0.05200,
,,,-00.000305800000,  -0.05200,
,,,-00.000305600000,  -0.04800,
,,,-00.000305400000,  -0.04400,
,,,-00.000305200000,  -0.04400,
,,,-00.000305000000,  -0.04000,
,,,-00.000304800000,  -0.04000,
,,,-00.000304600000,  -0.03600,
,,,-00.000304400000,  -0.03600,
,,,-00.000304200000,  -0.03600,
,,,-00.000304000000,  -0.03200,
,,,-00.000303800000,  -0.03200,
,,,-00.000303600000,  -0.02400,
,,,-00.000303400000,  -0.02800,
,,,-00.000303200000,  -0.02400,
,,,-00.000303000000,  -0.02000,
,,,-00.000302800000,  -0.02000,
,,,-00.000302600000,  -0.01600,
,,,-00.000302400000,  -0.01200,
,,,-00.000302200000,  -0.01200,
,,,-00.000302000000,  -0.01200,
,,,-00.000301800000,  -0.01200,
,,,-00.000301600000,  -0.01200,
,,,-00.000301400000,  -0.01200,
,,,-00.000301200000,   0.00000,
,,,-00.000301000000,  -0.00400,
,,,-00.000300800000,  -0.00400,
,,,-00.000300600000,   0.00000,
,,,-00.000300400000,   0.00400,
,,,-00.000300200000,   0.00800,
,,,-00.000300000000,   0.01200,
,,,-00.000299800000,   0.01200,
,,,-00.000299600000,   0.01200,
,,,-00.000299400000,   0.01200,
,,,-00.000299200000,   0.01200,
,,,-00.000299000000,   0.02000,
,,,-00.000298800000,   0.02000,
,,,-00.000298600000,   0.02400,
,,,-00.000298400000,   0.02800,
,,,-00.000298200000,   0.02800,
,,,-00.000298000000,   0.03200,
,,,-00.000297800000,   0.03200,
,,,-00.000297600000,   0.03200,
,,,-00.000297400000,   0.03600,
,,,-00.000297200000,   0.04000,
,,,-00.000297000000,   0.04000,
,,,-00.000296800000,   0.04000,
,,,-00.000296600000,   0.04000,
,,,-00.000296400000,   0.04400,
,,,-00.000296200000,   0.04400,
,,,-00.000296000000,   0.04800,
,,,-00.000295800000,   0.04800,
,,,-00.000295600000,   0.05200,
,,,-00.000295400000,   0.05200,
,,,-00.000295200000,   0.06000,
,,,-00.000295000000,   0.05600,
,,,-00.000294800000,   0.06000,
,,,-00.000294600000,   0.06000,
,,,-00.000294400000,   0.06400,
,,,-00.000294200000,   0.06400,
,,,-00.000294000000,   0.06400,
,,,-00.000293800000,   0.07200,
,,,-00.000293600000,   0.07200,
,,,-00.000293400000,   0.07200,
,,,-00.000293200000,   0.07600,
,,,-00.000293000000,   0.08000,
,,,-00.000292800000,   0.08000,
,,,-00.000292600000,   0.08000,
,,,-00.000292400000,   0.08400,
,,,-00.000292200000,   0.08800,
,,,-00.000292000000,   0.08400,
,,,-00.000291800000,   0.08800,
,,,-00.000291600000,   0.08800,
,,,-00.000291400000,   0.09600,
,,,-00.000291200000,   0.09600,
,,,-00.000291000000,   0.10000,
,,,-00.000290800000,   0.10000,
,,,-00.000290600000,   0.10400,
,,,-00.000290400000,   0.10400,
,,,-00.000290200000,   0.10800,
,,,-00.000290000000,   0.10800,
,,,-00.000289800000,   0.10800,
,,,-00.000289600000,   0.11200,
,,,-00.000289400000,   0.11200,
,,,-00.000289200000,   0.11600,
,,,-00.000289000000,   0.11600,
,,,-00.000288800000,   0.12000,
,,,-00.000288600000,   0.12400,
,,,-00.000288400000,   0.12400,
,,,-00.000288200000,   0.12800,
,,,-00.000288000000,   0.12800,
,,,-00.000287800000,   0.13200,
,,,-00.000287600000,   0.13200,
,,,-00.000287400000,   0.13200,
,,,-00.000287200000,   0.14000,
,,,-00.000287000000,   0.14000,
,,,-00.000286800000,   0.14000,
,,,-00.000286600000,   0.14000,
,,,-00.000286400000,   0.14400,
,,,-00.000286200000,   0.14800,
,,,-00.000286000000,   0.14800,
,,,-00.000285800000,   0.15200,
,,,-00.000285600000,   0.15200,
,,,-00.000285400000,   0.14800,
,,,-00.000285200000,   0.16000,
,,,-00.000285000000,   0.15600,
,,,-00.000284800000,   0.15600,
,,,-00.000284600000,   0.16000,
,,,-00.000284400000,   0.16400,
,,,-00.000284200000,   0.16800,
,,,-00.000284000000,   0.16800,
,,,-00.000283800000,   0.16800,
,,,-00.000283600000,   0.17600,
,,,-00.000283400000,   0.17600,
,,,-00.000283200000,   0.17600,
,,,-00.000283000000,   0.18000,
,,,-00.000282800000,   0.18400,
,,,-00.000282600000,   0.18400,
,,,-00.000282400000,   0.18400,
,,,-00.000282200000,   0.18800,
,,,-00.000282000000,   0.18800,
,,,-00.000281800000,   0.18800,
,,,-00.000281600000,   0.18800,
,,,-00.000281400000,   0.19600,
,,,-00.000281200000,   0.19600,
,,,-00.000281000000,   0.20000,
,,,-00.000280800000,   0.19600,
,,,-00.000280600000,   0.20400,
,,,-00.000280400000,   0.20800,
,,,-00.000280200000,   0.20400,
,,,-00.000280000000,   0.20400,
,,,-00.000279800000,   0.21200,
,,,-00.000279600000,   0.21200,
,,,-00.000279400000,   0.20800,
,,,-00.000279200000,   0.21600,
,,,-00.000279000000,   0.22000,
,,,-00.000278800000,   0.22400,
,,,-00.000278600000,   0.22400,
,,,-00.000278400000,   0.22000,
,,,-00.000278200000,   0.22800,
,,,-00.000278000000,   0.23200,
,,,-00.000277800000,   0.23200,
,,,-00.000277600000,   0.22800,
,,,-00.000277400000,   0.23600,
,,,-00.000277200000,   0.23600,
,,,-00.000277000000,   0.24000,
,,,-00.000276800000,   0.24000,
,,,-00.000276600000,   0.24400,
,,,-00.000276400000,   0.24400,
,,,-00.000276200000,   0.24800,
,,,-00.000276000000,   0.24800,
,,,-00.000275800000,   0.25200,
,,,-00.000275600000,   0.24800,
,,,-00.000275400000,   0.25200,
,,,-00.000275200000,   0.24400,
,,,-00.000275000000,   0.24400,
,,,-00.000274800000,   0.24400,
,,,-00.000274600000,   0.24000,
,,,-00.000274400000,   0.24000,
,,,-00.000274200000,   0.23600,
,,,-00.000274000000,   0.23200,
,,,-00.000273800000,   0.23200,
,,,-00.000273600000,   0.23200,
,,,-00.000273400000,   0.22800,
,,,-00.000273200000,   0.22800,
,,,-00.000273000000,   0.22000,
,,,-00.000272800000,   0.22400,
,,,-00.000272600000,   0.22400,
,,,-00.000272400000,   0.22000,
,,,-00.000272200000,   0.21200,
,,,-00.000272000000,   0.21600,
,,,-00.000271800000,   0.20800,
,,,-00.000271600000,   0.21200,
,,,-00.000271400000,   0.20800,
,,,-00.000271200000,   0.20400,
,,,-00.000271000000,   0.20400,
,,,-00.000270800000,   0.20000,
,,,-00.000270600000,   0.20000,
,,,-00.000270400000,   0.20000,
,,,-00.000270200000,   0.20000,
,,,-00.000270000000,   0.19200,
,,,-00.000269800000,   0.20000,
,,,-00.000269600000,   0.19200,
,,,-00.000269400000,   0.18800,
,,,-00.000269200000,   0.18400,
,,,-00.000269000000,   0.18000,
,,,-00.000268800000,   0.18400,
,,,-00.000268600000,   0.18000,
,,,-00.000268400000,   0.18000,
,,,-00.000268200000,   0.17200,
,,,-00.000268000000,   0.17600,
,,,-00.000267800000,   0.17200,
,,,-00.000267600000,   0.17200,
,,,-00.000267400000,   0.16800,
,,,-00.000267200000,   0.16800,
,,,-00.000267000000,   0.16800,
,,,-00.000266800000,   0.16000,
,,,-00.000266600000,   0.16000,
,,,-00.000266400000,   0.15600,
,,,-00.000266200000,   0.16000,
,,,-00.000266000000,   0.15600,
,,,-00.000265800000,   0.15200,
,,,-00.000265600000,   0.14800,
,,,-00.000265400000,   0.15200,
,,,-00.000265200000,   0.14800,
,,,-00.000265000000,   0.14400,
,,,-00.000264800000,   0.14400,
,,,-00.000264600000,   0.14000,
,,,-00.000264400000,   0.14000,
,,,-00.000264200000,   0.13600,
,,,-00.000264000000,   0.14000,
,,,-00.000263800000,   0.13600,
,,,-00.000263600000,   0.13200,
,,,-00.000263400000,   0.13200,
,,,-00.000263200000,   0.12800,
,,,-00.000263000000,   0.12800,
,,,-00.000262800000,   0.12400,
,,,-00.000262600000,   0.12000,
,,,-00.000262400000,   0.12000,
,,,-00.000262200000,   0.12000,
,,,-00.000262000000,   0.10800,
,,,-00.000261800000,   0.11200,
,,,-00.000261600000,   0.10800,
,,,-00.000261400000,   0.10800,
,,,-00.000261200000,   0.10400,
,,,-00.000261000000,   0.10800,
,,,-00.000260800000,   0.10000,
,,,-00.000260600000,   0.10400,
,,,-00.000260400000,   0.10400,
,,,-00.000260200000,   0.09200,
,,,-00.000260000000,   0.09600,
,,,-00.000259800000,   0.09200,
,,,-00.000259600000,   0.08800,
,,,-00.000259400000,   0.08800,
,,,-00.000259200000,   0.08800,
,,,-00.000259000000,   0.08800,
,,,-00.000258800000,   0.08400,
,,,-00.000258600000,   0.07600,
,,,-00.000258400000,   0.07600,
,,,-00.000258200000,   0.08000,
,,,-00.000258000000,   0.07600,
,,,-00.000257800000,   0.07200,
,,,-00.000257600000,   0.07200,
,,,-00.000257400000,   0.07200,
,,,-00.000257200000,   0.07200,
,,,-00.000257000000,   0.06400,
,,,-00.000256800000,   0.06400,
,,,-00.000256600000,   0.06000,
,,,-00.000256400000,   0.06000,
,,,-00.000256200000,   0.05600,
,,,-00.000256000000,   0.05600,
,,,-00.000255800000,   0.05600,
,,,-00.000255600000,   0.05600,
,,,-00.000255400000,   0.04400,
,,,-00.000255200000,   0.04800,
,,,-00.000255000000,   0.04800,
,,,-00.000254800000,   0.04400,
,,,-00.000254600000,   0.04000,
,,,-00.000254400000,   0.04000,
,,,-00.000254200000,   0.04000,
,,,-00.000254000000,   0.03200,
,,,-00.000253800000,   0.03200,
,,,-00.000253600000,   0.02800,
,,,-00.000253400000,   0.02800,
,,,-00.000253200000,   0.02400,
,,,-00.000253000000,   0.02400,
,,,-00.000252800000,   0.02400,
,,,-00.000252600000,   0.02000,
,,,-00.000252400000,   0.01600,
,,,-00.000252200000,   0.01600,
,,,-00.000252000000,   0.01200,
,,,-00.000251800000,   0.01600,
,,,-00.000251600000,   0.01200,
,,,-00.000251400000,   0.01200,
,,,-00.000251200000,   0.00800,
,,,-00.000251000000,   0.00400,
,,,-00.000250800000,   0.00000,
,,,-00.000250600000,   0.00400,
,,,-00.000250400000,  -0.00400,
,,,-00.000250200000,  -0.00400,
,,,-00.000250000000,   0.00000,
,,,-00.000249800000,  -0.00800,
,,,-00.000249600000,  -0.00400,
,,,-00.000249400000,  -0.01200,
,,,-00.000249200000,  -0.01200,
,,,-00.000249000000,  -0.01600,
,,,-00.000248800000,  -0.01600,
,,,-00.000248600000,  -0.02400,
,,,-00.000248400000,  -0.01600,
,,,-00.000248200000,  -0.02000,
,,,-00.000248000000,  -0.02800,
,,,-00.000247800000,  -0.02800,
,,,-00.000247600000,  -0.03200,
,,,-00.000247400000,  -0.03200,
,,,-00.000247200000,  -0.03200,
,,,-00.000247000000,  -0.03600,
,,,-00.000246800000,  -0.03600,
,,,-00.000246600000,  -0.04400,
,,,-00.000246400000,  -0.04000,
,,,-00.000246200000,  -0.04400,
,,,-00.000246000000,  -0.04400,
,,,-00.000245800000,  -0.04800,
,,,-00.000245600000,  -0.04800,
,,,-00.000245400000,  -0.05200,
,,,-00.000245200000,  -0.05200,
,,,-00.000245000000,  -0.05600,
,,,-00.000244800000,  -0.05600,
,,,-00.000244600000,  -0.06400,
,,,-00.000244400000,  -0.06400,
,,,-00.000244200000,  -0.06400,
,,,-00.000244000000,  -0.06400,
,,,-00.000243800000,  -0.06400,
,,,-00.000243600000,  -0.07200,
,,,-00.000243400000,  -0.07200,
,,,-00.000243200000,  -0.07600,
,,,-00.000243000000,  -0.07600,
,,,-00.000242800000,  -0.07600,
,,,-00.000242600000,  -0.07600,
,,,-00.000242400000,  -0.08400,
,,,-00.000242200000,  -0.08400,
,,,-00.000242000000,  -0.08800,
,,,-00.000241800000,  -0.08800,
,,,-00.000241600000,  -0.08800,
,,,-00.000241400000,  -0.09600,
,,,-00.000241200000,  -0.09600,
,,,-00.000241000000,  -0.09600,
,,,-00.000240800000,  -0.09600,
,,,-00.000240600000,  -0.10000,
,,,-00.000240400000,  -0.09600,
,,,-00.000240200000,  -0.10400,
,,,-00.000240000000,  -0.11200,
,,,-00.000239800000,  -0.10800,
,,,-00.000239600000,  -0.10800,
,,,-00.000239400000,  -0.11200,
,,,-00.000239200000,  -0.11600,
,,,-00.000239000000,  -0.12000,
,,,-00.000238800000,  -0.12000,
,,,-00.000238600000,  -0.12000,
,,,-00.000238400000,  -0.12400,
,,,-00.000238200000,  -0.12800,
,,,-00.000238000000,  -0.12800,
,,,-00.000237800000,  -0.12800,
,,,-00.000237600000,  -0.12800,
,,,-00.000237400000,  -0.13200,
,,,-00.000237200000,  -0.13200,
,,,-00.000237000000,  -0.13600,
,,,-00.000236800000,  -0.14400,
,,,-00.000236600000,  -0.14000,
,,,-00.000236400000,  -0.14400,
,,,-00.000236200000,  -0.14400,
,,,-00.000236000000,  -0.14400,
,,,-00.000235800000,  -0.15200,
,,,-00.000235600000,  -0.14800,
,,,-00.000235400000,  -0.15600,
,,,-00.000235200000,  -0.15600,
,,,-00.000235000000,  -0.15600,
,,,-00.000234800000,  -0.16000,
,,,-00.000234600000,  -0.15600,
,,,-00.000234400000,  -0.16000,
,,,-00.000234200000,  -0.16400,
,,,-00.000234000000,  -0.16000,
,,,-00.000233800000,  -0.16800,
,,,-00.000233600000,  -0.17200,
,,,-00.000233400000,  -0.17600,
,,,-00.000233200000,  -0.17200,
,,,-00.000233000000,  -0.17600,
,,,-00.000232800000,  -0.17600,
,,,-00.000232600000,  -0.18000,
,,,-00.000232400000,  -0.17600,
,,,-00.000232200000,  -0.18400,
,,,-00.000232000000,  -0.18800,
,,,-00.000231800000,  -0.18800,
,,,-00.000231600000,  -0.19200,
,,,-00.000231400000,  -0.19200,
,,,-00.000231200000,  -0.19600,
,,,-00.000231000000,  -0.19600,
,,,-00.000230800000,  -0.20000,
,,,-00.000230600000,  -0.20000,
,,,-00.000230400000,  -0.20000,
,,,-00.000230200000,  -0.20000,
,,,-00.000230000000,  -0.20800,
,,,-00.000229800000,  -0.20400,
,,,-00.000229600000,  -0.21200,
,,,-00.000229400000,  -0.21600,
,,,-00.000229200000,  -0.21600,
,,,-00.000229000000,  -0.21200,
,,,-00.000228800000,  -0.22000,
,,,-00.000228600000,  -0.22000,
,,,-00.000228400000,  -0.22400,
,,,-00.000228200000,  -0.22000,
,,,-00.000228000000,  -0.22800,
,,,-00.000227800000,  -0.22800,
,,,-00.000227600000,  -0.23200,
,,,-00.000227400000,  -0.23200,
,,,-00.000227200000,  -0.23200,
,,,-00.000227000000,  -0.23600,
,,,-00.000226800000,  -0.23600,
,,,-00.000226600000,  -0.23600,
,,,-00.000226400000,  -0.24400,
,,,-00.000226200000,  -0.24000,
,,,-00.000226000000,  -0.24400,
,,,-00.000225800000,  -0.24800,
,,,-00.000225600000,  -0.24800,
,,,-00.000225400000,  -0.24400,
,,,-00.000225200000,  -0.24400,
,,,-00.000225000000,  -0.24400,
,,,-00.000224800000,  -0.24400,
,,,-00.000224600000,  -0.23600,
,,,-00.000224400000,  -0.23600,
,,,-00.000224200000,  -0.23200,
,,,-00.000224000000,  -0.22800,
,,,-00.000223800000,  -0.22800,
,,,-00.000223600000,  -0.22800,
,,,-00.000223400000,  -0.22800,
,,,-00.000223200000,  -0.22400,
,,,-00.000223000000,  -0.22000,
,,,-00.000222800000,  -0.22000,
,,,-00.000222600000,  -0.22000,
,,,-00.000222400000,  -0.21600,
,,,-00.000222200000,  -0.21200,
,,,-00.000222000000,  -0.21600,
,,,-00.000221800000,  -0.20800,
,,,-00.000221600000,  -0.20400,
,,,-00.000221400000,  -0.20800,
,,,-00.000221200000,  -0.20800,
,,,-00.000221000000,  -0.20400,
,,,-00.000220800000,  -0.19600,
,,,-00.000220600000,  -0.20000,
,,,-00.000220400000,  -0.19600,
,,,-00.000220200000,  -0.19600,
,,,-00.000220000000,  -0.19200,
,,,-00.000219800000,  -0.18800,
,,,-00.000219600000,  -0.18800,
,,,-00.000219400000,  -0.18800,
,,,-00.000219200000,  -0.18400,
,,,-00.000219000000,  -0.18000,
,,,-00.000218800000,  -0.18000,
,,,-00.000218600000,  -0.18000,
,,,-00.000218400000,  -0.17200,
,,,-00.000218200000,  -0.17600,
,,,-00.000218000000,  -0.17600,
,,,-00.000217800000,  -0.17200,
,,,-00.000217600000,  -0.16800,
,,,-00.000217400000,  -0.16800,
,,,-00.000217200000,  -0.16800,
,,,-00.000217000000,  -0.16000,
,,,-00.000216800000,  -0.16400,
,,,-00.000216600000,  -0.16000,
,,,-00.000216400000,  -0.15600,
,,,-00.000216200000,  -0.16000,
,,,-00.000216000000,  -0.15200,
,,,-00.000215800000,  -0.15200,
,,,-00.000215600000,  -0.15200,
,,,-00.000215400000,  -0.14800,
,,,-00.000215200000,  -0.14800,
,,,-00.000215000000,  -0.14400,
,,,-00.000214800000,  -0.14400,
,,,-00.000214600000,  -0.14000,
,,,-00.000214400000,  -0.14400,
,,,-00.000214200000,  -0.13600,
,,,-00.000214000000,  -0.13200,
,,,-00.000213800000,  -0.12800,
,,,-00.000213600000,  -0.12800,
,,,-00.000213400000,  -0.12800,
,,,-00.000213200000,  -0.13200,
,,,-00.000213000000,  -0.12000,
,,,-00.000212800000,  -0.12000,
,,,-00.000212600000,  -0.12000,
,,,-00.000212400000,  -0.11600,
,,,-00.000212200000,  -0.12000,
,,,-00.000212000000,  -0.11200,
,,,-00.000211800000,  -0.10800,
,,,-00.000211600000,  -0.11200,
,,,-00.000211400000,  -0.10800,
,,,-00.000211200000,  -0.10400,
,,,-00.000211000000,  -0.10400,
,,,-00.000210800000,  -0.10400,
,,,-00.000210600000,  -0.09600,
,,,-00.000210400000,  -0.09600,
,,,-00.000210200000,  -0.09600,
,,,-00.000210000000,  -0.09200,
,,,-00.000209800000,  -0.08800,
,,,-00.000209600000,  -0.08800,
,,,-00.000209400000,  -0.08800,
,,,-00.000209200000,  -0.08400,
,,,-00.000209000000,  -0.08000,
,,,-00.000208800000,  -0.08400,
,,,-00.000208600000,  -0.07600,
,,,-00.000208400000,  -0.08000,
,,,-00.000208200000,  -0.07200,
,,,-00.000208000000,  -0.06800,
,,,-00.000207800000,  -0.06800,
,,,-00.000207600000,  -0.06800,
,,,-00.000207400000,  -0.06800,
,,,-00.000207200000,  -0.06400,
,,,-00.000207000000,  -0.06400,
,,,-00.000206800000,  -0.06000,
,,,-00.000206600000,  -0.06000,
,,,-00.000206400000,  -0.05600,
,,,-00.000206200000,  -0.05600,
,,,-00.000206000000,  -0.04800,
,,,-00.000205800000,  -0.04800,
,,,-00.000205600000,  -0.04800,
,,,-00.000205400000,  -0.04800,
,,,-00.000205200000,  -0.04400,
,,,-00.000205000000,  -0.04400,
,,,-00.000204800000,  -0.04400,
,,,-00.000204600000,  -0.04000,
,,,-00.000204400000,  -0.03600,
,,,-00.000204200000,  -0.03200,
,,,-00.000204000000,  -0.03200,
,,,-00.000203800000,  -0.03200,
,,,-00.000203600000,  -0.03200,
,,,-00.000203400000,  -0.02400,
,,,-00.000203200000,  -0.02400,
,,,-00.000203000000,  -0.02000,
,,,-00.000202800000,  -0.02000,
,,,-00.000202600000,  -0.02400,
,,,-00.000202400000,  -0.02000,
,,,-00.000202200000,  -0.00800,
,,,-00.000202000000,  -0.01200,
,,,-00.000201800000,  -0.00800,
,,,-00.000201600000,  -0.01200,
,,,-00.000201400000,  -0.00400,
,,,-00.000201200000,  -0.00400,
,,,-00.000201000000,  -0.00400,
,,,-00.000200800000,  -0.00400,
,,,-00.000200600000,   0.00400,
,,,-00.000200400000,   0.00400,
,,,-00.000200200000,   0.00800,
,,,-00.000200000000,   0.01200,
,,,-00.000199800000,   0.01200,
,,,-00.000199600000,   0.00800,
,,,-00.000199400000,   0.01200,
,,,-00.000199200000,   0.01600,
,,,-00.000199000000,   0.01600,
,,,-00.000198800000,   0.02000,
,,,-00.000198600000,   0.02400,
,,,-00.000198400000,   0.02400,
,,,-00.000198200000,   0.02400,
,,,-00.000198000000,   0.02400,
,,,-00.000197800000,   0.03200,
,,,-00.000197600000,   0.03200,
,,,-00.000197400000,   0.03200,
,,,-00.000197200000,   0.03600,
,,,-00.000197000000,   0.04000,
,,,-00.000196800000,   0.03600,
,,,-00.000196600000,   0.04400,
,,,-00.000196400000,   0.04800,
,,,-00.000196200000,   0.05200,
,,,-00.000196000000,   0.04800,
,,,-00.000195800000,   0.04800,
,,,-00.000195600000,   0.05200,
,,,-00.000195400000,   0.05600,
,,,-00.000195200000,   0.05200,
,,,-00.000195000000,   0.05600,
,,,-00.000194800000,   0.05600,
,,,-00.000194600000,   0.06000,
,,,-00.000194400000,   0.06800,
,,,-00.000194200000,   0.06400,
,,,-00.000194000000,   0.06800,
,,,-00.000193800000,   0.07200,
,,,-00.000193600000,   0.07200,
,,,-00.000193400000,   0.07600,
